{
  "version": "1.0",
  "defaultProvider": "cdnjs",
  "libraries": [
    {
      "provider": "unpkg",
      "library": "@microsoft/signalr@latest",
      "destination": "wwwroot/js/signalr/",
      "files": [
        "dist/browser/signalr.js",
        "dist/browser/signalr.min.js"
      ]
    },
    {
      "provider": "unpkg",
      "library": "jquery@3.4.1",
      "destination": "wwwroot/lib/jquery/",
      "files": [
        "dist/jquery.js",
        "dist/jquery.min.js",
        "dist/jquery.min.map",
        "dist/jquery.slim.js",
        "dist/jquery.slim.min.js",
        "dist/jquery.slim.min.map",
        "dist/core.js"
      ]
    },
    {
      "provider": "unpkg",
      "library": "jspdf@1.5.3",
      "destination": "wwwroot/lib/jspdf/",
      "files": [
        "dist/jspdf.debug.js",
        "dist/jspdf.min.js",
        "dist/jspdf.node.debug.js",
        "dist/jspdf.node.min.js",
        "package.json",
        "README.md"
      ]
    },
    {
      "provider": "unpkg",
      "library": "jspdf-autotable@3.2.11",
      "destination": "wwwroot/lib/jspdf-autotable/"
    },
    {
      "provider": "unpkg",
      "library": "html2canvas@1.0.0-rc.5",
      "destination": "wwwroot/lib/html2canvas/",
      "files": [
        "dist/html2canvas.min.js",
        "dist/html2canvas.js"
      ]
    }
  ]
}